{
    "data": [
        {
            "name": "Total Views",
            "value": "267K",
            "change": "18%",
            "change_code": "POSITIVE"
        },
        {
            "name": "Product Sold",
            "value": "2885",
            "change": "8%",
            "change_code": "NEGATIVE"
        },
        {
            "name": "Total Earnings",
            "value": "$54K",
            "change": "14.2%",
            "change_code": "NEGATIVE"
        }
    ]
}